<?xml version="1.0" encoding="UTF-8"?>
<svg width="1188.9" height="62.388" version="1.1" viewBox="0 0 1188.9 62.388" xmlns="http://www.w3.org/2000/svg">
    <g fill="none" stroke="none" stroke-width="2.3131" aria-label="COMPLEX NUMBERS">
        <path d="m58.244 40.069h8.704q0 13.909-5.8027 17.579-5.7173 3.584-26.965 3.584-21.589 0-27.307-5.12-5.7173-5.12-5.7173-24.832 0-19.797 5.632-24.917 5.7173-5.2053 27.392-5.2053 21.333 0 27.051 3.584t5.7173 17.579h-8.704q0-9.3867-3.84-11.264-3.84-1.9627-20.224-1.9627-17.579 0-20.992 3.072-3.328 2.9867-3.328 19.115 0 15.957 3.4133 19.029 3.4133 3.072 20.907 3.072 16.299 0 19.883-1.792 4.1813-2.1333 4.1813-11.52z" />
        <path d="m91.269 31.194q0 14.336 3.328 17.835 4.1813 4.352 20.992 4.352 16.811 0 20.651-3.7547 3.4133-3.328 3.4133-18.432 0-15.616-3.4987-18.859-3.4987-3.2427-20.565-3.2427-17.579 0-20.992 3.072-3.328 2.9867-3.328 19.029zm-8.704 0.08533q0-20.139 5.12-25.003 5.4613-5.12 27.904-5.12 22.187 0 27.477 5.0347 5.2907 5.0347 5.2907 25.003 0 20.139-5.4613 25.088-5.4613 4.9493-27.307 4.9493-21.845 0-27.477-4.9493-5.5467-4.9493-5.5467-25.003z" />
        <path d="m180.61 2.0099 30.208 47.957 30.208-47.957h15.531v58.368h-8.6187v-50.517h-1.7067l-32.683 50.517h-5.4613l-32.683-50.517h-1.6213v50.517h-8.704v-58.368z" />
        <path d="m281.82 39.045v21.333h-8.704v-58.368h47.616q7.7653 0 12.117 4.608 4.4373 4.608 4.4373 13.995 0 9.3013-4.5227 13.909-4.4373 4.5227-12.373 4.5227zm0-29.184v21.333h38.485q3.9253 0 6.0587-2.56 2.2187-2.6453 2.2187-8.2773 0-5.376-2.2187-7.936-2.2187-2.56-5.9733-2.56z" />
        <path d="m358.19 2.0099v50.517h44.8v7.8507h-53.419v-58.368z" />
        <path d="m411.95 2.0099h55.893v7.8507h-47.189v16.981h45.568v7.8507h-45.568v17.835h47.189v7.8507h-55.893z" />
        <path d="m518.87 25.818h1.1093l24.491-23.808h12.373l-29.781 28.331 30.379 30.037h-11.861l-25.6-25.515h-1.1093l-25.6 25.515h-11.605l30.379-30.037-29.781-28.331h12.032z" />
        <path d="m611.46 2.0099h12.715l50.091 51.115v-51.115h8.704v58.368h-13.141l-49.664-50.773v50.773h-8.704z" />
        <path d="m708.57 43.397q0 6.8267 3.7547 8.448 3.84 1.536 20.224 1.536 16.555 0 20.309-1.536 3.7547-1.6213 3.7547-8.448v-41.387h8.704v41.387q0 12.032-4.7787 14.763-5.2907 3.072-27.989 3.072-22.613 0-27.648-2.9013-5.0347-2.9013-5.0347-14.933v-41.387h8.704z" />
        <path d="m795.27 2.0099 30.208 47.957 30.208-47.957h15.531v58.368h-8.6187v-50.517h-1.7067l-32.683 50.517h-5.4613l-32.683-50.517h-1.6213v50.517h-8.704v-58.368z" />
        <path d="m887.43 60.378v-58.368h44.8q8.96 0 13.739 4.2667 4.7787 4.2667 4.7787 12.288 0 8.7893-6.5707 11.264 3.7547 1.28 5.9733 4.2667 2.7307 3.6693 2.7307 9.216 0 8.6187-4.7787 12.885-4.6933 4.1813-13.824 4.1813zm8.704-50.517v16.555h36.096q5.5467 0 7.68-1.8773 2.2187-1.9627 2.2187-5.9733t-2.048-6.144q-2.4747-2.56-7.8507-2.56zm0 24.405v18.261h38.059q4.9493 0 7.424-2.4747 2.56-2.56 2.56-6.656 0-4.0107-2.56-6.5707t-7.424-2.56z" />
        <path d="m966.36 2.0099h55.893v7.8507h-47.189v16.981h45.568v7.8507h-45.568v17.835h47.189v7.8507h-55.893z" />
        <path d="m1047.6 39.301v21.077h-8.704v-58.368h52.395q7.424 0 11.435 5.12 4.0107 5.0347 4.0107 13.483 0 7.2533-2.304 10.837-1.6213 2.56-5.2053 4.096 3.1573 1.28 4.9493 3.328 2.56 2.9013 2.56 7.168v14.336h-8.6187v-14.336q0-2.9013-2.816-4.7787-2.7306-1.9627-6.656-1.9627zm0-29.44v21.504h40.192q4.7787 0 6.9973-1.6213 3.328-2.4747 3.328-9.1307t-3.2426-9.0453q-2.304-1.7067-7.0827-1.7067z" />
        <path d="m1177.5 20.442q0-7.424-3.84-9.3867t-18.176-1.9627q-15.701 0-19.712 1.536-3.9253 1.4507-3.9253 6.8267 0 5.888 4.6933 8.1067 4.6934 2.1333 18.944 2.1333 21.077 0 26.624 3.072 5.632 2.9867 5.632 13.653 0 10.752-7.936 14.08-6.4853 2.7307-26.283 2.7307-21.419 0-27.563-4.6933-4.6933-3.584-4.6933-15.616h8.704q0 8.2773 3.6693 10.411 3.6693 2.048 19.968 2.048 15.957 0 20.651-1.536 4.7786-1.536 4.7786-7.424 0-5.9733-3.584-7.424-3.4986-1.4507-19.968-1.4507-20.139 0-27.051-4.864-5.2907-3.6693-5.2907-13.227 0-10.411 6.2293-13.312 6.3147-2.9867 26.112-2.9867 19.627 0 25.685 4.608 4.864 3.6693 4.864 14.677z" />
    </g>
</svg>