<svg version="1.1" preserveAspectRatio="xMidYMid slice" viewBox="0 0 437.62 437.62" xmlns="http://www.w3.org/2000/svg" xmlns:xlink="http://www.w3.org/1999/xlink">

  <style>
@keyframes slideIn {
  from {
    opacity: 0;
    transform: translateY(10px);
  }
  to {
    opacity: 1;
    transform: translateX(0);
  }
}
#i1, #i2, #i3  {
  animation-fill-mode: forwards;
  -webkit-animation-fill-mode: forwards;
  opacity: 0;
  transform: translateY(10px);
}

#i1 {
  animation: slideIn 2s linear 0s normal forwards;
}

#i2 {
  animation: slideIn 1.5s linear 1s normal forwards;
}

#i3 {
  animation: slideIn 1s linear 1.5s normal forwards;
}
</style>

  <g transform="translate(114.83 38.478)" aria-label="ВИКТОР АРГОНОВ project">

    <image id="i1" x="-114.83" y="3.522" width="437.62" height="72.231" preserveAspectRatio="none" xlink:href="data:image/png;base64,iVBORw0KGgoAAAANSUhEUgAABnYAAAERBAMAAAC0uoQ3AAAABGdBTUEAALGPC/xhBQAAAAFzUkdC AK7OHOkAAAAJcEhZcwAACxMAAAsTAQCanBgAAAAwUExURUxpcQICAgEBAQAAAAMDA/v7+wMDA0RE RP39/ZOTk/b29tvb26qqquTk5PX19f///6260WcAAAAPdFJOUwAZfGU1S1GQm7Hi3741esdpctoA ACAASURBVHja7J1faBzHHcf3Hg6Og7tbgRraQCjsgYxpXmQtV/oHfEuFaPvQqA95KTTHIeFC+lA4 h5bUBvuhBWNoj8qhYCi4VVoSDM22cjG0DghkcElbsF8KpS/nvAVDco0cR9FJ9nZnZvdu/vxmZiWd kl3z+77Y2tuZnd35feY3+/vtzjoOCoVCoVAoFAqFQqFQKBQKhUKhUCgUCoVCoVAoFAqFQqFQKBQK hUKhUCgUCoVCoVAoFAqFQqFQKBQKhUKhUCgUCoVCoVAoFAqFQqFQKBQKhUKhUCgUCoVCTVHlFzl9 H9jh38BmUsi4A926zP6BtMzvWnsQRrFGPze2bTnrGdXAE6mZ6ypbW+k4/7lOm/nmcpZLBB2lfplU EL35vvnoaJQFUT8SpBoGMRd52yDeeDH9gxi+Wm+89RErDekRb5LjraP7Yh0Noczol/cynVE1ghok 1fXWPeNlYPpEgC8cb3/LfonKcvFYDyYVS0fv2DoBVQB2ougPgGG4QCGBHdcBkHuciZ3v8dsvGuw9 1i+ynBEtdc/MjlKXlZ1yyP3wxHqJAHb4Q4yWTeyodKIKwY7gExLDCFQwop+53B+BC4y7HwVadh6P a6yIP9w32rsCNiTiFKPvujZ2oj9a2XkSCH5Ue42AS1SWist8jMzsyHSiisGOaFTEMPZarmIY0Z2A Y6clmypB4kZXy87OajoTkn4Yme1dckyghrR1dnaEukB29lddnXVflNkBLhFXXBkjqFM2sCN1Aqog 7ETLMjtzrnpHcbvLsdN0gZuONV/Pjs87CV7/M9t7tJztjF5v29nhJ3YwO2Mg6pGJcfL3HMAOz1Mo 13DfzE50H22ziOw8sbDTsLNDdul1reyM3c6tzfR/Fnu3T2bobg+DDOw8yczOMEXmevrbnw7GTjWt 4G+bwIl0bIEKVF7Zeecq060QGNwBdoZ2dog/8eI9Pkjr/g2p52qqNV9wO3/3Yp1j//+daO+7adsy z9oYnF2Anb8mTbmlju3kMrz9L0lbvstNUmMYenEzX91UTFvHju9KbO6RCk78Q/F6Ha4T/hmi4ykQ O6RHmV5lHfehmR26z+3AxE6M114z3qN0Kqn5BOFgfBzP52pKj/88G49dwd43xkXOZ3M8zM53IXbW 5LoeaS7DuJUu77TeSLbelU3fzg5r1F5SwTn5IneEo5/cVO+IUHllp7nAFHcc7Tc+4qqywyZaV4zs xAzuN+N7jtJKUvWXKTsLqbrcDXRs0gsLZ1YWTn2J/tkW7H3dG7fthDJeQ2J17s1D7CTnGfN8ktXl gpdhrNT4qdfY97zmQutM3JJNyfTt7DTSMSKuID7RC9RzuSI7XCdcExuHyjE7ZxYXlxZjxf16gnqe d03sVDKwQ6ZNZGNpcXWRibDTTP9YDCZTth3Pa60GMzOzSwvUZv4sstNKSsRtOylP6iAldxY+xM64 roVTz4t1JZdhVVTADxY9L27+zMzM4srXJP9oZ4fCt+E1W7SCpQV6kQORndXJiTI630XrzD87Z2PL TbS48nXSbR+5BnYadnaItW3TUmnFnyPstMbH4UwqRiegxWcWvyIem7Ljp0Vml1Z+Ssd/83icBAV8 V918pTupa4GO/Y9d+DIkcjkcd2J0aLNLs9/YFE3fzk4yY0tPdOmrZMNfBHaMnYDKLTuTaVJpdmVT tE+VnaGdHRLT3RbMlxjTrmTQtcQmg2RzaYkce68tsDO5cZmZXZHGa0hJ+OHXEDuTkjOLP6CT0zZ8 GYAqe56fEO/M/pBseC07O9RTr3tz6fFnlsiGj12BHb4Tlsg91SdtNM8isRMbxsvKoCqxE9rZISP1 lpUdalJb3iSFWHqBbOlq2Ilt6jT5/VfGE0rCyXfM7MSTydP8sYzs9Ondztyk9DOiW7CyQ31h7LfG +8yS2eluW8OO2gmoQrBT+oJgvyo7SU7GyE4jSY2a2WEmxdmkQ4+9KsTZ+IBZack+l4lPaBdIjsrs OKVv0XmTm4EdsuM2h7gzc01wGxp2Jqc7pPC1ZiYH/zYp09WyU3pG9GyoQrDjlMjE6TVXy04lAztp esfMzoBO2fiNJcFlKOw4s3cFo4UUe8XtUE2OKuw4syFXl4kdGmDuNfnCXyRnE2T2OyGDj/v9OWGQ 6KidQBp0E294isZOR+g2hZ1GBnaGmdghe20LNkk33dSzQyd1+8a5DKnzrpocVdmhdaUAmNihg4WA uPN5clW6mdmhc1PhROkg8YqrZYfS+TGyUzB2aLc9bGvZGWRgp5+kRs3skOF4SzQ64dgqO9RoR13D +ZDjbFxTk6MqO86zHAAmdqo0NdWVoxwjP+ucrabCRw94x8DOs9CDRai8s1MRuk1hp5+BHZrMadvY AUyqwR8bYKcE5W7kxq9dUJOjADtlri4TOw3VPTpCGNzmd8gfI2HKxnC5YWCnDj1YhMo7O2Wh2xR2 Ijs7ZKDdEa1Jy05XMf3xseU4W+qrXjHMZYiT6J1WAQPYKXEAmNgZjJNVYjN+nJUdclL7EnykPTfa enbIJdxHdorGjiM8DyazU8/ATl21NoAdskma2YnDLcROH8jdyDbpvawmRwF2eABM7BDL3pCq6x+E nSp9yqLtaB1sB+6EPR/ts4Ds7Ps6doghhBZ2KvSBgCzsSDM7tm3ewA4xs9sGdmInMWp+UwUMYofj 0MbOlq8GQ84ehJ1t4B2o7a6BnRDZKSI7QrfJ7JAZzAULOw3V2nTsgDZnYGfAz3UA0Qe4v6MmRyF2 OA5N7PSTd5HkolfaB2HHPyA7fRKNwEBb0dghUTL+Rlhgh+QebewQA+/N29ipqHdFyW78TToQL3s9 MJ7PbvM5IVKoZWcwyaEehp3bB2Fn3VdjGjZ2ojlk56lih/S5jR01vaNlxzfYHMRO1RK7DSmP6k4Q OxyHNnbOBsfBzryBnSGyU1B2JrYgsUPzJzZ2SKXN42Nn2xB/YrcWoRLg1bHzsHt4doIDsLMxf0B2 OshOQdmJdOzQGLCNHSCApmXH0e8GsVMxs1NmUYq+EuCF2OE4tLLTPio73UOw00R2niZ2aAzYwk5N F0DLxs6+jZ2dee3pVFiUoqMEqZAd1GfNzpA8EfwjMzt1bRDg2NmpsijFQEmOatmZR3ZQ040VNDXs 0OdTXjCzUwHyGdOcs+3o8x4NFqVoKE8fQOxUkB3Up8cOmY6tzw3M7DTU1Oh0/Y6enQGLUlSV5Gjh 2BkiO0VlRzNnI13e8zOws2VyKMfHTrK2VUV5+6Vw7PSRnSKyE+rZoXMiv2Nmp6OmRj+tOVufRSnK SnK0iOzsITuFY0d4VkZkh4YKuhZ2+mpq9NPyO2ESpVCSo4WLFYTIzlPGDrHNZmBhh9hS8/Ds2PM7 enbSKIXy9kvh2KFxfmQn9+yoacydFshOsu6amR2W3gmOz+/o2SmnUYpQTo4WkZ0dfK6gaOxUhMd+ BXboW5ktCzu0vDxkTsvvVI3s1OmrNknMwLexQ+OBOWWnjuwUkZ2q8K6XwA4LFThmduir0nOHZ8fo dxpGdtLP/tAWFpod6L0FVO7ZGQghZoEd8qyL17WwQ5/Z94/J7zSA5yrFX+nrAkpyVPcOwkZO2WkA L6uics9OXwgxC+ywUIGFHbaEh3M8fmdgZGe8LpySHIXYIenHrZw+zzZUVodEFYAdcQmOSEr2bDfb ZnYq6pJMU2SH2pT2OeoOifAFSd03bexwL7Xljh3aCfNon8Vipyqu6sKzQ25g1+I/jOx0gCWZpjdn g17iFH6ln/2hLRWSoxA7UX7ZqUdsdowqFDsdcVUXnp1GsqCaiR26kN+aEiE6tN+ZdwxOUVaYfPaH tkJIjurYaQa5ZIcuN9zEtQ2LxQ5d8Y8Lk/HsDJLB0MTOAFix8Ch+R2Snxtk7oMkD3HJyFGCnHqUz vPyxQ1YiWm+20T4LxQ795rLXAtnpJ4OhgZ0y+6aO4hmm5Hcq9JVUnU2R0tus6XJyFGCHTU7beWTn v3Q6iemdYrFDe22XC5Px7CShAhM7fXXd8mn6nQawTKDoSZLAbp9fMBpmZ5B+2DF37FTY900xRF0k dmoPImb74Pd36una63p2huzrgOqIOaU4Wx94rU6sMQnsdqSlQQF2Qq6uPLFTey9inyfFUEH+2Xn7 ElOYLJe77821IXaq6Z2Mjp2XWA3rwIg5JXYi9dMJknNJAmdyclRlh84ut/y8sPPOB5fei3Xp8vUo +aA8hgoKwI6sLd72OXbIerV0MFTYuXU9VoreCOr16cSo6Vdze76JnWS0lpOjKjsNPof72bNj7ARU QdjZEWyfYycNFajsSL3eco/CjuB3xDV1h+a0R2cSOKvw3+gA2Qn5uo7KDqQjsRN3Ak7ZiseOJ9g+ x04aKjCz84bXXHWm5ncEdug3GHaa9tSomhxV2KEubJzDzRs7Iw8agFB5Z0f8VMyEnfL4XsPCTis4 EjuC3xFsLgni6cJsxJWk74vJyVGFnVCoK3d+Zxfvdgp5vyN8SHrCTmWc9DTP2XagXj+s3+Ftjn3+ 3dOnPfggnJQcldkZstE9HdwPw86V42Qn+j26nSKyE90H2WmkoQKb5Vw8Gjsav1NmTd3W30PXJqlR JTkqslMb1+Xk1O+InYDKKzs9L9GJ85u0256A7AzJTCILO6Pp+50XX7qcVN7T3+7U+XdepOTohJ0a X1eQG3bGneD95C4t/giNs0jsxLpG++0exE6YhgpUdq4y3Uqs5rfT8ztq/Ek/Zavw77xIyVFLXUdm 57qkI7Djeedo85bROgvAzsJEHh30PgTYqU3Skgo7414/zxyPe2zs9LxVLTtV/v2EgZgcBeoaef9n 74xC3DjOOK6FCA6BpBVVjry0gRXYFAzlTocMzcsJC5nmpX4xlEI43BNXAgWDEu7oQ7FfAochOXIp AacPaa60ca9NBWfTQF0wNcWlpRD3IcQUkkve+pKqOac+n+6c7c6spJ1vZrS70kpXjf3/P/jwajW7 mvl+883Ot/NNUFbi+I5DdXJ4doRGmL8kNQI0rey81Ch0Vawtn+aDNltlZyYIS6rs9MhzTnGz/Gxs YzZJW2HR9ry4PiFPg6N5XfTxRDU1NeyIjbAyz8bODzFbYAA7gTkWinXe51VVdoKpAs07OY0a18py +ZIyUzdGv7PvhLgdP/15VXBC18PYeVcsKzk7lRWi4dkJqtwq1L9NGwGaWnZEwyicZc32uspOMFWg Yafa6zPrZR6vT8LOYL/jmXslfK/RYH3CDA2OKmW9T8pKzE6/Bnx9PdkahEKd3eKfYZ5msZMq3iLR hT47rSAMH7IGYVCXOQa/07ntOKUQt+OHRheFkoTgqFTW4aZX1gV7fOyMee1bkT12PsCgzTB2rO+S ZuuxkxWWk4atG7V4l3ljXH7n8ObNm+wt087f2URUKDpSKk0aHO2VxXWVlVUWy5o2dqzn2e0vwj7N Yif1DLNfJdeHMFUQnutD32WOHBsVn8DLjULIT8nStT00OMrK2hTLqpCypi5PztOsADzwmMaOxXBR ckzlhTf2Q9nhfutgcUx+J2CnVK7UwtChoVE5OErYKZXLK9VCaprZYY3QwZvUprHDX5NU8oIu8d1D YrDDu8zOuPKz7ZT8eavKSqNWCB//z9Ats9okOMrZ6c+FKWVN595VyG1oHDvE6nrsbAhv7Iezw7pM tzEudhb4vBWbxYp6cs7Q1G0sOLpK2HmjH0IpxKmGibKTi7Pf6MuYLDCNHWJ1PXb4RqN2HHZ4mT+1 xzRmYzZnxfopeZq6jQZHdfnZptrv5JUtUyED2CHN1mUnJy52jmCHsfer0dkZvH4nXEs0dRsNjhrH Dr99TLSZxg5pti47GTFB+1L0Xr33F8fod2L/lEOBHRocNY6dGbBjIju82aqUnV1hqiCKnRnNArhj 8DskNCoHR41jJ6dsmQoZws59iR1xqiCKHc7JmPYbHYIdeac0Ehw1jp20JpE9ZAQ7/WbrsiNOFUSx w78z+h7xI/qdrJz20BWDo2AHOg520io7OX+j0ZjstNTYxOT9Dt924w90+VkQHDWSnX2w8xiwQ6YK ItnZkBLaHgs7M7p1z/0rThs7uVjsYPMqI9mZI+yQqYJIdtokLHlM7GR07Kway04K7Dwm7GyQrZSi 2GEBnjvHzY5uhXYQpjKTHbyU8xiwQ6YKItlhhvqLxWNmR5uo6fr/kZ2DROxkwc7jwc7TZKogkp2M GpuYPDttHTv94Khx7KTBjons5BR2nqH7IEaxM6POEU2enZaWnSrYgY6RnRmFnWfp9gNR7GiCo5Nn h+9XRyTehZHs7IEd89lp012Xo9jRBEcnzk7WT6MjsXNkLDs5sGMiO7ytCTtBStDY7EjB0Ymzw/vp UlnULSE4Cnag42Anr7Aj7VQYyY4aHJ04O6y0rQrJ9CSu4Zs2dmK9R70Fdkxk57b4XsEpOlUQzY4a HJ04Oxlh91DhNldNZYc4f8gkdjZFdr4VpASNx44aHJ04O3yfXnVD+Tcnx84bSdjJxFk3ehvsmMZO W1z4z9i5RKcKotlRg6MadnID2NkfiZ0luuK69/3rk2GnLWbBjcPO1rDs7IodGGQKOyxSUhLYcV06 VRDNjhoc1bDjH1KfkEdjpy3edODYesHRMbOzMSw78nIC8ky5FNWBQaaw44oL/3ubBojGEcmOGhyN yc7MyOy06IrrHog9ghOww59tdN3LRNlp0ewLkBHssHYPcqL3Nr9eGIYdNTiqYYdFZA4XNEOZkdhx 6Yrr3gV6d5GQneu67mUxJjua1yx4oZsXQthx1b4Amnp2MnwjdpuwQ6YKotnJKsFRDTspV13mkxej GsOysy9vCScERxOwk1ffzsvyrQ/issP839GcesFmCDs5TV8ATT07ebJ4ubdl+VDsqMFRHTstNX1f W8ztOQw7aXnFde8CC2NhR0pdwjzJUWx20i7d+7R3a04IO3nd74GmnR3WrDsVyg6ZKojBTkt2KTp2 2LV/r+LUn2kehh0/lGirP657LAE7GZKfO8BJdM2h7PAqellxXC7JnSJdvU1XfUBGsJN2xTSGKc1U QQx2NuTgqI6dJWXDBH5tsu1hXHYyNBl1cIHVxOyw4ZM7pxRMXHM4O6xHuGGrjiuEHdoIkBns5In9 dtmhzRjNzpIcHNWxw/fEqSpdfGkUdng8d05z8E5idvgvpKbvyq45nB3mRPbJCbvccS0OZCfjkgQR kBns+Pt6UnboVEEMdvLy3JSOHZ6d40/ySCWIwg7Dzq4aGiV3kYQd5jYObPnGiWsOZyevbIXXUnJ2 0atv8BUVCO+YxQ5v561SlbBDpwpisKMER3Xs8EH/I1s6sFeyR2BHExolwdEk7CzJpr/LvcJcKi47 nLV3ZPhozi5y9RmpESAT2En7QzSy9aA8VRCDHSWtro4df6nnXckmg2sPw86GLhySC+4iCTt8APVI QvyAuOZwdviuKh2bXk4ImcnsZFtSI0AGsOOjcyREQvmBHdqM0ezk5OColp1n2Xe/ohfvOAujsKMN hwgh2iTs+JXyKfFxkmsOZ8dn5T3qVvZpzi7h6tkNuRGg6Wfne/7MwI4w0tZMFcRgJyuHA7XsfIMX /kvS2+45JA/uEOzsq/10MLuchB2L23LnXPe/3/dftCCuOYId3km4l8WJO3eH5uwKrv6Jn3lhC487 BrDzx3WuK/0MGY4w+nE1Mz7R7CjBUS07lm8lv7srmEyzVB2BnbQ+lNjqByWTsNM1fffVwCl4XmNh CHaKfgGvCB3UoUNzdv3136/9i7XCtSsttRGgaWVH1o44WuDDB+kpPAY7cnBUz87z3StuX9vuWsy+ YFJDsKMNjYrB0UTsdE3f7fhZrvmDPnXNEexYbwc/tPdiupR3SNYehmwGsnPkiKj4UwXVwey0tOzI wVEtO6mikhiq6TRGYYcvL1vQzpCtJmfHuijf5oFzojoEO6nvyAUcipWsYYd8DpnCTtOpLFJ2pKmC OOwsSdtl6tmxfiRde18cqQzBjjY0Kq5fTcbO7C2ljqhrjmKneFHx7UGqSB07TefEIqzTNHY2nVLD puw0F4ZmJ092+xzITv2S1NsKbmcYdnb1K8WC4GgidlLFF2XLFz1xDHasM7ckvyX+UJWd27QRIBPY 6TQdOtDWvRwSkx1xz1E9O6mnlt+mva1ok0Ow09a9VtAN0Y6BHav+nHib79I6isFOqnj6FhkWOxVp DTvpQja9zwswTqPY6fzFoa3qr4GRrXI3mh35xYIB7Fiz828FFtWkvW0mPjsb+pViwcrRZOykisvf DGrpfamO4rBj1U9/0C/g1473NGMPYkfTCNA0Knt2LRDPplmpEjP4eG2tKVtl9qO1tf6xj3/onaBA wU4hyL3glaOZObLq8yf/5ne2qsl8zTsSc476I+8mNLbv3UV3KOeVFTLp+6FXDWErzazisvMz37R/ 63lmOqBiVSTPjys/1yvgx77r+c2mXABphKamEaBplLVM89CW5Vaz5h1HNgzrjGCI1g/UEzzNSnZf nHe0s66FuvdB12RKUm8768SdbWJ3pHuFJbiL2VB2WDWErtK06mXHOdntX8r0WURXRerPLS7P9wso rVTluw9tBGgq2amTNLSVhtxq1nK5rDy2znpn9tk54/1HbeqiV9oF8mTjlaO7g0K9PN81mRXp4sXl csyxC/sZuodrr4TuXcx6ZS2Gfr8Saq9Wbbl7m6VKo6BUkdwtPKVUm1VcKffYaEi/Sm6EAtAxQcVa rVZk/3iqVgsFdbRSqykHC965tlBCQWdrNUKCpT+NF7bCTWZF+ZwlxrVj/4yq1uJ7V40oqyjdrm7Y Vl/udi+F6CrSHQv5oTVBhQKmCcxRsl7OGlSoFec09kmhwEw3mcnYk68Dfps1DYKW5uuW/ofyDir8 ZPgc6Dgt35ghMpoagiAIgiAIgiAIgiAIgiAIgiAIgiAIgiAIgiAIgiAIgiAIgiAIgiAIgiAIgiAI giAIgiAIgiAIgiAIgqZZ99bXX0UtQNDw2nDd/6IWIGgkdh7ZqAYIGoWdL7FhGgSNxM5+A9UAQSOx s4BqgKBjZufe+vpl1CH0ZCp7dq05OjtLrvsf1CH0ZIptepuInS9sVCL0ZLJTpxsED83OA8zSQU+o Bm4IHJOd+xdQh9AT6niSfNljZ28OdQhBYAeCwA4EgR0ImoCy6+vr59JXtq+do8fT58+/kPKO3yVH P7myvf3aXeVM6bv8tFfUa93b3r72OTny4XkWWf3JebQDZJ7Srutebnn/uOdkf/AwLR+9x85zOxQe dQ3CP/lpDzUuxtN70nd5iWgHyEx2rnAD/kphp+0d/YdwLOdbunSmwk7vtJ/TK810D3+qYcdGQ0BG stPVXdVJuG5DMOu2qzF/vn6HRDd7p0nepMuJ+0jDThXwQCaz846OnZcWg0ej/plfSEyQNQhBiZ/p L2Sr7FTADmQyOwd2ODuZ/pkPbYkd8X224LQvxdPy/cOvq+ycADuQmex0brLZgsNqODu77Jyrb7Gj 1RB22DePrn4gw9jmh9l1bgSHrWXvvD3HATuQoexsOifZnwvh7DDrbzoOo+LlEHa8/3ccx5FhZC7G cU55/z4AO9Djws6BZ+qXvL8LtsTObccpBey0+Jnl57wP3rQHs+Odtu+d5hXYEWF0/cPsT4CUVWfs lMoNsAMZyc6eU1656P1dldjxHILEzp5Tqb3ofXLnf+2dv2sjRxSAJbiACUinBWFCyl249N5D9S4I F0mTvyBBSKgNyMVBcm0g3YEUMJcm4KuSxqB054OAu4O0adKkSnEQYlAgOutClJ3ZH9qZ2V1JVg4y 0vcVXnh+OwZ7Pma8mve2wp3o2xdR2meajHK8jnBlnlPKie6ePQwd/hBgpTtTr+u8V+DOyPX9YSs/ +6de6LSj6w9BqTviadz1g9B5P7rmtmKN5O5o43fbU7dyM7odgK3ujKP1QXygOdHccb2B4ygrx7VY SYQ7Yak76YBHqoxpOBr3VvvviPNsYLE78XUSKO68cfN7rixT7N3WuDPqxccIzjR3ovAvrx65uAN7 406v0J2/vbAoU7hz0St1RyxgZ+XuyO4GLdyB/XBnEq6uOXduc88J0szEnVm5O9KZMLkGqlKhcMf3 B6w7sOfuqJ+6ZBkbuBMY7qRK1doDpbsB7sA+uqOeMktXjg3cWZofrGbuOOrzaNyBfXRHeVSwmv2X 6nTfwp3A/Pm4A7iDO4A7uAPwn7sT4A7AW3Tn5dMYD3cAd7ZyZ+TG4A7gzpbueL4k95Abd+Bw3Wlu 4c6gG4M7sP/uNNe6807OnWm1O2ehI2nVcAf23p3sCfR6d5aV7jSLJUndaX6MO3CI7kxSd8rP5KSK Hantc9Pwp8vFl7gD++KOqMZ5d2N3slqEcndE2n21+W4avtGa7eIO2OzOszBun5avOTDdEVXTz4J4 U1bhTiMpyRYdqXRHg7gDb0t1Z447YKs7onHNk7Xu1JLM+0lhaIk7Iu3PoNYQAzpGWFz+0lpP3eIO 2OrOsicvb9a4cykaR8vL0iuvuU7SfhYD5osYZNtpuWjNtLrR5df8GcBWdxZfCSHmXqvSHdHb8PVv T6RlFe6IhNd/iK9K8ZwI/POJ+DrNj3vDO0TAZndiZg+q3Vl1lJ7nVyjdnV+LB1yFR0Y27oDd7lyv caeZZU61BUVxZ3WQepxPy8ILN9+fTXZ+X9DbEKx2x31Y7U79Mpv9nQp3sjS1R1U9W428vDvyxSQL euqCne7Ek33mar3cdXdqHyWz/0LvsKa4k6VNlQFrH6aKKq2r6je8QwTsdec8Xky8cI077c/l5P/O 9XpV7hx/k6Yp/d2Ov413hq7aQuT4R9wBa90Zf3C1fDFSX+Rx9OrpWHen3n/8fHF17qqz33DnXv/x 1dJIqzn9L54vXoxdV92gtU8e/fQSd8BSd3xZqabMab1/p4wdn8QlbfnmhKY7WVpPvfs0DndCM4w7 YKc7k2H/xPW0OX3qm2/FcU6FZVrccCfSoSAtudvr6OH2UCmSA7DJnbA9HA5Cdf624cxDYQAAAPhJ REFUu93QyHa6w+Gwa3Qn1NwpTJPyROGwZQ7aDXEHLHWnrhaqycXDiMh5biYWuFOUVhGuO6gDtrqz ywhF7gDgDu4AvC13LnnrIeDOXYirCvhFAu5sefv38pAO7gDubEl8OnqMO4A7d3JHPfQJgDsbujPH HcCdO7kz8kJ+kXBwNHZ355qjnHCQtE/cHZaNxu/nI/PANcAhcG8nd4R6elUBwGHg9P1OsIM7vt/p suzAIVIvPtu88e0UEADccd3CHAAAAAAAAAAAAAAAAAAAAAAAAAAAAAAAAAAAAAAAAAAAAAAAAAAA AAAAAAAAAAAAAAAAAACA/wH/ApqHZEdbHX4AAAAAAElFTkSuQmCC " />

    <image aria-label="2032" id="i2" x="-114.83" y="268.44" width="437.62" height="57.15" preserveAspectRatio="none" xlink:href="data:image/png;base64,iVBORw0KGgoAAAANSUhEUgAABnYAAADYBAMAAAAkKsD/AAAABGdBTUEAALGPC/xhBQAAAAFzUkdC AK7OHOkAAAAJcEhZcwAACxMAAAsTAQCanBgAAAAwUExURUxpcQICAgYGBvX19QEBAbu7u/z8/AEB AfX19fj4+ODg4Pv7+5aWll5eXoaGhv///xLr/S4AAAAPdFJOUwB4GApAyWtZ5Tzip7KbamWfMo0A AA97SURBVHja7J1PaBvZGcCFBKEhJ4EXXxoQiukeWorJgInxpQhDIPSikHRDSLolpiYmhbBLwJce mmWTVWN7XTAYGx+CS9Msrp2FhDUJPhiVbQPBF8HCQmkvofTQu8ogO7yOLduS/P5oZp5mnoN/PwI5 RKMZou833/e++WYmkwEAAAAAAAAAAAAAAAAAAAAAAAAAAAAAAAAAAAAAAAAAAAAAAAAAAAAAAAAA AAAAAAAAAAAAAAAAAAAAAAAAAAAAAAAAAAAAAAAAAAAAAAAAgJOCp4f/HAANuUCQ4cX5cRUTi3PB vw7ynwQnJFUcMhjKnPnxjQ2hY2N9fFH5RZ5ndQShtuZXhiSyxdB4NxYXu8dfYM6dTWFme31C/prW /ufn541HoNZnuOvhN3MevzT03J0F0RW/sjE+Zww/b7irOU175rwY+987ggm1PSMhtq5Mrc9hD/Tc ncciFLvhN2hQR4T8mjEv3v6FPzWhiv+RsFuPsdwCN+4EK5YJXfR5wxthv0RMHck84fcfxP+cF9ed YOt15AFH7ojtV+roy4XOOk15BmPuX5G1IrgTqIc84MgdnTxeFHWEeOjFdkchz0iUrZEHekmU2A3k UagzvxnJHf/FYGx3xMbcYHx3/IfIA47cEdtjg3LF9lJE4y9efHfEuhffHeG/otsGjtyRQjcI/qWI 6nQmnqjuHLV3JNqu50g84Mid7RdHg8/bjOqOWD8X353OrBXVHfF7Eg84ckdsHL0+MxLdne1bg/Hd 2X4+aOEOiQec9NlUNVPEJluTV4X47nRkrcjukHjAmTvizx2hmxnejOHO9jkLd+pvbdxpzPGbg5ua TfhjnSVbDHVE/ZaFO+Jye+Ybirr1c4o2cJR3xB/bgy93O4474nLBwp1fFGzceVjgRwdH7jw4Z9dl 2+WGjTsdRVtkd/y3/OjgyJ1GR+jOxnKnXrJwR1y2cucyRRu4We+0F1zRl+pS6ojjzi8LFu6ILyna wJU7z1rBF+7ONQVXChbu1K3cqRf50cGRO62CK5O7G9OdZ1bulGzcaZT40cGRO23BF7NV0Bb+cdxp /NXKnX9TtIErd1rNguHZmO40bNxpVXyxFlxXcAccudMWfEMirjtvbdx5ZuXOU9wBV+78yd4d8W3B wp3pko07z1jwgCt3npYsInefj2zcqVu5U8cd6AVxYnf1cLES352nNu40PrVxp21rgHTdaTXJlPeM 1q/e2Grxt6sfK/NOycadezZVY9vWACm7c3DiVl7eWbmZ7+SfK4pPlW3cqffZuON/hzvQC3eWvrmq 56tZ44lb5U6j2jTmk/7Dvz74Wv7YzQN35n+zZeD6itKdVvQP/bo9xR3hWkUpz2vcgV64c/5i3sC/ rinsaRyEbk5xaTTIOpP3RjuYfCN/7N1B3Wfef/7sdYV44vvD6PcGjFu/mTX0KQCsyJpjN3/N1GCW 3anX8pOjxWIxWywWmn8Vi6O//Vq/Zsp++Mluctr9s7/H5t/9e38Crpszx8De5v26w39j7BMC2DAw amBy8oNZfegq3NnJ95eODlsWBz7Wr5nM+w+OQCFeuztF08YXJ88qtr6PO9ATikYGLl4zXJyRvVrL K7pYxf/K7hx+LFvMFvZ3ls0WCrupKltoJqzmAShSx+u26G99VHn4/8AdcFPRZQcuGRrMsjvlfkVg 5n4sr5n6Qi46ssVL+i5diK1/Lh/jDO5AKvx0Vt9glv+pqrx4MhTfnUz2R3LZtRw++gcUW3NxFFLh vD50FWPUNWVc2riTOT9r4072Lu6Aq7JtU++OrERNGdWKD/aHdie3aeOO4tbWMu5AKigugBrcySfg jlXmyF3AHXDlzmNt6KqUOG7uZHAH3hN3Cr1357GVO/Kk9Rp9Njix7pSt3NnBHcAd3AHciXQAVTt3 WO/AyXUnQuY4I7vDzW9wUt3RXEUKnXdwB06sO3ncAdyJcwD1fjt3+nAHToY70rXRnf6f4Q7gTvcD kObZ1voLNu68wx1w5U45VXfkB8Yv91m5M4M7kAqe/vJKOu7IdzpUIwS/J7tzn14BpJJ2FK9FrJZS dEd++GijFj74c8MvcQfcqOO91N+kk4o7nvQq7Qf58IMBnuJF3MxRQyruLMzqb9JJw52cXLIth29R e6qXCVdxB9xUbK3LKym4k/PuSLuvhq/3FBVbkDZxB5JHFXti+iB2e+uOp2RJ6rI9yYder6gqtmhT CQAx044q9oKaKQl3csOLR5lfnL8jP6ygHHq5442oHqm70487kDjK2BPlPnt36rI7SyFfglALG/vK ik2ImShXVgFicVr5HgH/sEXcW3dCvk3kRtiSTdUi7EibAOlWbMF64dOMvTt9Md1plMMuV7wlZdb0 q4wVQNLqqCs2sXoYvC7ceZIPWbIpW4R76nNpFBJmWP3mp7bLKw7caVRDhr6uYhPTtNkgYXSx12jV PDZ9tnjuNNbCph1vQXRTHyCZik29WuioedJ350k+ZNrxNBWb8Gu0CiBZdLEnZlqXV1J350ktZNrR tKf3huFY7kCinNbFnl9tRW/a7qwE6oRMO7d137GcZyIHEkW3WgjO262o7+1cQXd3akHFVgylzogu a/o1ljvgpmILztv3nLmzWrsXsmKr6L5impIN3FRsnefttN0Rj96es6vY/DIlGySKNvbETPt5O3V3 xNSYZ1OxBRUnJRskiT72ds/bLt0RU3ODXSs2fcHZWKZkg0QrNu1q4ch524E74mG3xKMdKNht1JF2 wFHFFqSd9vO2C3f8sS6JR3G3XNscKWkHnFRsYrrzvO3CHTHldanYNu3nSAHicKpiujbZcd524o7/ wpR49AMFzbRT5AeGhDCtFoLY6zxvO3HHnHg8w92nq8HhU7JBUnhLs+EHMd2449/SJx5P32MTj2qs diDBtGOIvUY1P1nKuHdHPCzEqtiWWe1AguoYYs9fk0oeWQk/DXf8t9q0o28Rigd50g4kWbGZb50p Zo6DO+K5pmgzDBQIIWVNgB5iqtjKcsnjqGbTFW2GEdDdYSIaBZAc+hHQvUs7UsnjKu801AnEu2vY JE9/GhLEsFrYbVIVM8fEHf+yUp0LwlSx0SiA5DCsFvyyquRx5Y74vBCtRejP0CiAJCu2iqnHpoq9 3rqz9M1VBV+pjmpa3ovpou5ej42KDVxUbLuxV8ok7M75i3kVZ6+FWvB4C4a0U6NRAI4qtqo69nrq Tib7YT6sPPIVHmPFVg77iBCA3lZsuw8UVMZeb93JDIyqmJz8oazFlUKEim2aig0SJPcy0lXRfd96 6062qGTgopx4vigcrdj0h1+p0WODBFkyzlBqYq/H7mgoDlySNv+y84C8IRGxRQjQI06ZBwpG1bFn U7NFeJFH9ifS0e10uKN4n2/riKjYwFXFtqqPvZTcyZyX1Gh0PCnKNAL6KE/FBgli6O+u1PQzlGm5 k5Nuo/bbexdejBYhQE/oNgJa6L07fiR3pEE1/7tCW8VWYaAA3GAYAfVXTasFG3f6rdwR3xZCVWya i7oAveG2uT2tj73U3JFH3V4XqNjAOSPG26xNsefQnY8ONmcEFI5jxaYdKDgG7uxnw5y3yQgoHM+K zRR7Dt0p77vDQAG8hxVbeu5kZHeWS/sVm2AEFI5fxXZTO1Dg3p37pa4VGwMFkCSxRkCPjztUbHAc K7aV7rF32qE7e0M5jICCMxbiDRSk7E5O584Zc3uaig2S43GcEVCTO9+n6s6IaQSURxmCE3dMI6At d+SKT+3OUNruMFAArtxphFstzBpmZXrpzt2I7jBQAK7caayFi71Z/axMR+yPWLqzGXG9wwgouHLn ScjYk935QrVZbsHmnutMxpP3s2zKO1Rs4MqdRtjYk2N6WuWO4gpmPYo7inVV2ZB3/DUqNnDjjr8W dphlU/HktEE57SgeJ3Dgjud5XfeSUzxoumzIO4yAgit36qFjTzER80x2QXX1f6fpTm5occ7bR1+y vRSR8g4DBeDKnZ2trf+Mm/jVweaKl3b4f5BCX/UUm53mPde5x8KvTG2sj08szmU8tUXKm9uqJb07 W1t/Nx7+BL87JNYr6MLvDO6IqU55ct6Qambu3aE7h9JVKhuBROOLrUy0S7C96nEEJne68T9+d3Dl zmcHiyHlSE9lveMsf0f5JI4ZyZ22L6gEqWhjw7h9zcYd+gjgyp3PD1ZDF0Rc7hvcCfP2Kht3dlgN gSt3Di/i/CC2O+V7du7027hDAxtcuXP/4KmcZ2K7U21+RVx36k13RnAHHJGzdOdUXHX82qc28h60 uGO604c74DrvnJ6N606+ZJV3ZnAH3m93MnHdqe+7Ezfv7LcacAfeW3fuirg1l5075Wb4n8EdeL/c Wf5/e2fP2jYQBmBxQ3ZBwJNBHIJCh/yBbkbgreBBUErzIxRcNHcIiNDu2UqHQoZCp0JXD9mUQUOX Uv2B/gLRpT1/yJbkD/nuAvGV5xmDT34J76P37mS9t3bn1nSLuv4pqFkA1WyKO+C2O6YbbZNzO3f8 K4uvZ58NTsCdM7MFT1VMrdypl0u4A866I8zc+eNfWQXwYYA74PhewaFu1n8PtewcWQUwWS2XcAfc dee5WeEaWLlTFee4A667Y/R0tCrWb1wbBXBdv1KNO+CuO+K7Te4bBvCunvLhDrjrjsmkrfq0Xu4Y BVDNBrgD7rtzoT9pqxr9BEwCeO/XT4d4NgoOuyN+6+8wNzpAGQRQTXy7dyBwB07DnYuv2jsFmymb SQDXm7KFO+CwO16oWXjm3d9s3FFlZ122WO+Ay+6Il3dag29aTTs/Gqx2NurhDrjsjhe+1dkuWPSK tgjgpmiohzvgtDti/PN4earLdq9o3QDa6rHeAafd8eTx8izUafbrvc209riztnq4A267I8LkR3Zc 6j/43RMWxuWv+zjLjpywzdpHITJngyfjxbfYgEnbHU9EyfB1f/pnXwqlTtRO3LE/Z1jm9/GrHoWW 45vqnRmFf4k78AgsU1eXjjuejBJ/GB+cflXZG5X5Sp3OCQthmibr6yqF8ji+y3ZdKfs8H5+21QuN wscdsEc8M8m97SM6ZJSqv5f53nt9Xi5GpqPu4SRShlEUpcqgpPENZaksyhuXyx+KXePDBHfgiZgn rj7bDZ1lOE57czadjnZkbRBIxfyyY6WQn+iMf6zwAfQLjzRh131b1Y/m9Gs78dNoJPfe8AOxjCSq HVJ1aNDyaKDM2RpvFj6HwsFpEawyf9/NXsreqZIQ3iq71ee740f94wGcrWL760AQ6GS++qwIlpO5 GsG/FwAAAAAAAAAAAAAAAAAAAAAAAAAAAAAAAAD+A/4BgAxRqrOzr6UAAAAASUVORK5CYII= " />

    <image aria-label="Легенда о несбывшемся грядущем" id="i3" x="-114.83" y="326.65" width="437.62" height="50.8" preserveAspectRatio="none" xlink:href="data:image/png;base64,iVBORw0KGgoAAAANSUhEUgAABnYAAADABAMAAADLr0AJAAAABGdBTUEAALGPC/xhBQAAAAFzUkdC AK7OHOkAAAAJcEhZcwAACxMAAAsTAQCanBgAAAAwUExURUxpcQEBAQAAAAUFBQEBAQICAk5OTvz8 /Pb29v39/cXFxfr6+pOTk/j4+JGRkf///7dVZvgAAAAPdFJOUwB8YRAoQ5Wr5ILOU7E6aI/hQ3QA ACAASURBVHja7JtdiBvXFYAF+6AVi7rMwJY+BEzEqH0pdECFthRqkdmQ9KE1dLRQ+lCzS70PpcSG EFwTgrJ2HWyTIkMKjilGyNguNYbNW2zyINa4pZSFXeiDXYLRQ/yQUtJUdnY1lrU71Z37d+7PjH7t LdI9L16P7r1zz7nnuz/nnkmljBgxYsSIESNGjBgxYsSIESNGjBgxYsSIESNGjBgxYsSIkbFLdtvY wIiRgeXTS5Vwz5jByGBy57Isf5wuAzy8cy5EsucaZzAykJRDWZ5O0UbtzqXfUrWfecYZjAwkFZWd wtSsueeA2p2SWXiMjMhOe1qc6IGge8cx7BgZkZ1OfjqcKCNNGXnDjhHDzjAnPcOOkQElnFZ2MqFh x4hhZxhpSGoHhh0jhp2hFA8WDDtGDDt9yJyk9c3NhaLxBiOGnd4yCzRuba5almUbdowMIll8Tl6N 5NfTx865CxE3CB1z3jEyxNalg93nJYGd7CdEkhsghT4arR+fxr2m+8MnD5FsDzIjPHzYq87tSNcL ywScXG7p+VwJk548fOED22PcxirUU7ankJ1dK4fk25CdD/me5ve47KWTUE5E1fn1UIDpmYt+fCf6 O8MLplIfn1Sro/J3TtIW3lG7l+Htnzsvj0wmSl39CPyNS8zxm5sW4AlkvXbrVKPfa11uuornlxYX C4VUSpMLO8dekgH5sldoX1iNbPTXRakrH7P+BxdJhVO808RGp/g757CVLtG20OQhJOoKffun8NMV 8uAK+gWOG2oEjd0pWnIbmAymAGeFd+DRezt1P/oX9fjSZfQXM8oVUvA+H6Tz+Mmdy3CIqVOcnEx2 7NJiV34M2BFCuCc0R6P/okfwZjWICqVxYmX09zwvqFxF4qdioPiEfkcpDYy07cKVHkR/R+6WregS W6vSi/D/l+3cUpebCByqYUt4SZq9ROgrRYHVwNdFe6zcRd4rIrhGhZVLAQuQd96H5XGZD0WzCfNH Q87hbRDb35YMWhUbuQhGB1bPCu+YJ4/rrCncd0HZlHRRtgfex5OKyasm8ryzmy8g+QFnR/TaUMPO E1c2/x5gp8BN9sTVsYOf1oVnLbl3onMEElu4+TMuL/mBQn34rq6lN10yvFZ+0SsUxMBJq6Cy060g d2ZbrJFhHzLwrggUE+3wo6euyDR+p3hdG30U8UAK5PzDjWengB88LdTF6UymBJtJYadAO/cmroVb eUJaQ3Xwz1zZgmZgLwJWmSHr0v8nat3BeZAZzo50c3hGZWfHU4J0LvO1/ejwMM8Kquzs+Co74QdJ y0534XE17Jz1uBs98pRutlxNS906hB3xkBM5R0t4hvV5y1NM8gyw062Bbbfvwa7MarQjOHnCK8k7 RROhtmQLhI/i2emU3OhB63UwSWhjqdc9DTsoBRgb5Ss42b1VqrM6uK+CstRA4gRK2PmDKwZzlyYr GoOt0FTYkaz9zFWG4LEjmy0aqTSAEY/O41JK3t7h6io7+zo4wFz/mebn0z53o7ueMpbhZ5qWunXw 8NqeGrAXk3Nwc1d9NRFhW6iRYXrzrpQ12hEzXHOFDU/0TilLCLU1K7v9ihfPTh6zE8ivVBq566u1 o2E/jIfGAwO24tRZHfwkXwTKKkMYuJydHRdO0GGYK04DO/LNYahO6E1H8W00YansNB3d5NfUsdMS Xbku9+J3rsrOWgmw46u7nK/UGT1cY+wUNewsqOzUNOycEWoo7PjKohF4nB3qVsSvo3fOq+xUh2BH eWW9b3awsh0fDJilsGOL7FQ0c1U1BAsTV8yeCnaUqeqeq2FHHtm2NyI7oZ9StlDx6xJhxxHZkT+E 3S+qL6+VcN8D+yc4zHd+e3B29t0e7MgrYORWRKeOJ5zio3eWVXbCEdkJS5otWzw7eMoMHL5YBJbf SGQnq5vfiFaBL86BE8pOSmRnXtki69hRBsUflZ17rrIMCOPr9WZHBq7tq/s4xs7f2Yq3PTA7La8H O/O6CagiulUFsBMq7GRGZucvrurd8ezM4O44/ODasXuwo3Rxp8hngV+J4zhh7KT17CjL/GOvH3Yc d0R2rrtKHEM8z6rs1ER2sjI7aBadj2EnlO6wBmKHz+kx7CgVrgO3uufCyBpqYU5lJz0yO9eLqncT duqaVKwqBY7uJpu2l8yOskPZBWv/WTFQM2HszAL/A+xgGwY3u0LY8VV2iE0u3Lq5+Tf857Eh2QnO EY8/7SlrogxnD3aIB97a3NzcYnUUdnz1JOH2x86FrknWyazqJrODlet0e7JZYROQ6FazgJ2Mys7s yOxc9dStI2GnqmEHBwvOFlnjawtu8nmHmBYpuU7CfVzJaL/MOzAd7JTZrbt1CLu6hh26I0ZCgjLF QdkJLtzC+WTrIGgmuG34V55qF+Z7spMBSUa4zoKrrAA6ds70x84Gb/hYD3aqvMI32ARUFrafdcBO WmVnHmQbbg3Hjk+GOACNxLMzywNtuGsbtNFkdpogpcvhSgae0M1pYmfZsm0y7LsOC7xQIey0Levl l3NbNDCbzE6Twxg9nfkZbe0QDYDJbkty7bi7yuyUNOy8F6XarFOgGyTziImGnX23T3Zsy9qiDffB zrLFsp3gdgYfeCoKO23eScrOWvS/WHY2aHnGzvurbDJqUnYi77aOy+wg636ds5PhgbYyCbP1te6s oYzAHFbAcXnU45FwszdN7Fi5paWlX/RgZ9fKd0t92YudrJ6dVyycSpf7Dgg4C25Lcu0YBwo7voad NbvbpyWJnRrruq1hp+31xw7SdotdDvVmJzLPL5kRy/CWk23TODtNlZ2NyAL9s1OzhP3CLPFu1Ahk p0znE8DODD9Wkk1FKdXPurMR2Zt9f8uUvCZE4iaMHTh3q+yUCoXC92R2ckR8mgvndUvVe7EzR46e lBLCzqtdPEuLi97iERA0E+MYONduQHbyqFNVkZ1lm3Y976nsoKM/Hvw/nSRZkLwTaD0kKpaotkF/ 7Ngllu0ksHMW3uhwdtaYfXMl6ph5ZIFqLDusvMtg6v7vW9h6JTo9Rmb8ErBTwaOXy30TpDGyQBv5 OMWmxzaBnbTMTi1K6lLZQUG39GSzswHZaTPlo1v3tHTZgF0Z5U8SdvL8dpldasSyk18klJCd3HdR PpkrBZxFdiIMCmXVdZLYcfj1drcOYSe/SEVz64iO/qGaXjcrs+Oz7Y7ATjqWHY9ZdhduZ9DFYVVl p7bAOlmgo+MU+ESgYYcOCNVzw0aKvk7NTLcWqJGGwk636E8BOyzQlqETI9H7KjvwatkpsW05+na9 DBfzxoSz4+vZKerY8aRcOB077T+jmbussLPGgl6EHZqeTsrq2MGxtVh23v8Xyocvy+ykNOzARDWV nWPKVeQeZ1pkh0zZReAumUHZCWH0BbFDfdzVj04sO3d9GSbHK7AYsyNsy1V2HBocx+wcplcFNERd 7I8dn4eDFoqikuUpYofv2d5A3zPdltkpiux0olLV2Mt0gZ2aI0UQpEsGLTupRHak4CuJFbyBvjcr i+yswEAEicLf2lxd/Q2pXFQurLZh4g/u6o0vqEnWFig7LYGdusjO6hfdntzXsHMPnATAuuMoGt4d kB38QGJHTl0i7DQldtI00Eb3Ym5f7Lz3b+QE7PcyzDIIJ5udu3p2tAkiMjuS78axk9ayI5ceFzvS lUhDrVwFgQ8WJJSrPoF7Sfkedzmvj1FL7EhG5JbdAdc3YN3xY7JdR2SnqbAT6tjJ0kAb1mIZ6pPA DhSBnR14vzth7DQOlp3K2NlJD8iOzaNPKjtP3Xh2mpbD2Skq7FyNYYdrvO81dOuOyk57HOwE/bEz Q99IQ9TsoqdfdgKBncCbn1h26nA3I593ngM7vsCOUviFs5NDUT4WfQrV9PE4djqWBXJyirrzToIR sYOW+1t3euQV9GInLq+AWReyQzrtuOSySTjnDbHuhKXyNLHzPNedZZGdxkGzEwWQefRJqfvIjV13 bti9ckF7sBP+J+zFTnoc7GSS2FmT2WmQuAkLs43IzrXQrDujsjOvY6dy4Ox4gsupqZTx7OBPOHvf 72j3bFt8/UpiJzMOdmLyqOf07GB9r/+QhdkGZUfcs4WtiWfHe0HsrIjshONnZ7BYAVYmnp3TxXh2 nqaGYQfrcYhbJ4md1DjYUWeoJHawHo9fI5dN7gjsHJcmiMlkxz4YdrL/l+y0YW6qx9lpaCLYw647 L7FnG4nslMfBTjWBnZrMDg4W7B5hYbbh2VmVJohJY6f6YtlBL+LsZA6anSCenUMkPMyTtRuJmdeD rTsWe2YlsnN4HOx8X8tOhtyjSuxguNtHWZhteHaWpQnCsDMkOw0NO/Ajg+MHwU5bzw7PTa2VZiV2 0IdB5HOlfXfodcdeZ+G6RHZ+NA52vqZlZ5bkWsjsVPmBLEBhtuHZWdkSJ4ipYmeVy3J8XgEotcLy 2Sz+1UrTAb6qYacDv0EYnJ2amFxPfBh0yo5np6Nlx0bJYUcIM2mJnQ3+uVK7r1xQyYiEnaN0YrET 2Zn5fAzszPxcxw62HqJDZAcsdR27X3ZuQHszdo6KE8SEslPUsmNZMCE+hh3wVQzK7Y9jJ2QpYDI7 TTDPj4udJuzUoOwseLxxR/kGweYfBJT6+gZBNCJh5zW6m+nBzivrY2Dn1S0NO2TTqrADNg5N2+uT nRq0N2Pnf+ydT2gc1x3HB2ZBMmIRM6BL6cXLbuihkIFd07Ql9qLRXmuiXVHaQ0ECm1IKdSlFplBU p4VuXZc1tNC4F6EQ3CAM9qGQCpOKLY0PxZDcEmNsH0JyaxwZW95s7Ezn/f+9PzM7WntrZ/v7+uDR m32/ef8+M+/P7818T79BTBs7PdDtt9mpKHWy2QG/knsQaAv7mmr8c2rO02KHemYfH5udUNuYckju dQAbDhzsbIgm62BH+XVvdZz7d/gGHnE/yWcHFqL041+Sjj257HhH2LrtI7GjeRx2vMaLuhHozxqb 7IAJHOqxV4wdWN6i+ayJTG5NJTvlJI+dsNNpUe/29L/Yy2JnobME3OZ5sdZUv4dWH/c5Va8hU+zs 000Gx7LY2a8qyJ3s0EvdNdhR2w3IhoMsdpLaKHbaJjt0/w7fEHAiKrR/R6VEvlszjDf42KpqsHNG Z4e/uaafs280g507qkD9TfFwkLcYMUVNalNnx1fs9HUX+Tx29PIWNzo+4gtq08gOK5eHGez8k+6c YYqy2BnW1I/qme+Y4g+ymoMdcvueO505zzaErztwsUN3FtwxxjtVLeXs7Os8cnnnvEgQey9Pz8HO nSx22uAp2CzAzloMi0eyc4w/n9sGO/uchPKt82A+JggrB2SHf6GCumXzR8lqAPaN8rXqBYsdME+0 Wi3Kzl5HK2/BzjHtBjFV7IiJID7dJBqrZGe/Sb5/82fy9j/VfK15tn9F5FM962nr/9TLYCdxSrAz 6ObNUSe/J+7tvELDgnvfyIulyrduXnitS1/mzs4O/7Nz4QJJJwljeR+SrQpvJRo7A7J/4UaSxw6f zFtrZuQMsvNqk3yEZ+dCtzdQnIbNb/DeTGywk3xy4wJJNn+z8ywfbNdWdguzA7Wl3AaHqRHxeN50 pvm8YSRwvgcM6gpwV527+tZ6jwQpdr7JO9Dt6WXn0UJz1Bx1DjtKY7KTtb7jeMdUUXaAfuVoUz9z 7Rtdc/gV9NuzBjtGakazA2ZvITtlft+PTHakHqubfjokrG+OxU5fuQ3uBx3puZfHjkzHMGwXZUcL Uuz42g1iKtnZt9ixyjZ29NmshnO/fiB24m/nszM3Djv2O17r9iLEz2MXCQ52VvPYGYxgx2x0D0kh Cnb8DdabiYxen9IX6vXV/TD2xmOHrN+IN4bJCccsdv4Uabes/TAexY7wlQX6G+iz0UySnvr0srPH 3wyj2LEqoVaEnXvtA7FTezmfHTvaUCt9JztWpFfbNjvyrWWjniJBHjuPRrBjXvVhDbDjHSULPkFH jZgc7wWVwx15OzsoO2T9Rgx3Fpoj2Hkn1iYL9lhp57FzIrbK8aMYTIqSTJ4UN4ipZGerZrIz73As t9nZcHgQHIAd8SjPZMdyYtwvwE7PYdLanurwfxg6SEh7LTnskLaVx47ZrMg2H8VO4zBbe1LzEw52 xHCnOiY7dHVTDHfAPMZmVpphtfJmkcfOWjzn8nyQ7LBMtr3pZWe1CpfFXP0HNzt3npCd5mY+O7uu 1jqKnV2HSd9mp1yEhLTXksPO1gh25nLZ8ZfZWohiZ8NmRwx32t547NDVTTnc8Yqxs6s3i3x2vFx2 WCbj6WWH3pHAcyetR78QOzNPyg7w/xg42LH6A6vaawfd7LzkwnHDYsd6PvUdJPRz2QlqUS47fi+X nQZZ8IHsHMvyfiPDnfHYIZkCw51i7BzTptlGsbOby06DLfhMLTt7Qdsz2PHuFmHHf1J2gJfiqoOd knnjDqqj2Sm52DGaJXlpjBE0cJAwTMOy2dkLqvnsmIVIC1ay4/lg1YyeOmqxA4Y7Y7HziMQEw51i 7MyI3LeLsPNSHjtaJqeRnVUxe3Uosx4z2Dn+hOz4snX1Awc7vtH4zgTaaTc7ViTqlWKHHbVsWyT0 g2o2OwPSj89n52guO3BChJ4yUi6/g0CHO+OwM1gNqhEc7hRjZ06bZhvFTmMjjx1t1mf62DkTiBVl wE5Dr8dzTna8I1q5dfsHZqclW2mwYbPjtS7rd9GwncWOWvz2W1pX6Sxd4fC/b4WVvmvbNsYzJCyL nbRdhvEIdkr6VS+OYuc7MOXbffEadTrcGYOdQZ9mCgx3irFT1geXI9jRi3ZwNvz/YOfGX3vJ4GIg e0Llf1BPeVqPi/yTOoPtiyeZc6x382PuYi7VeOEycww4d/3kKvETljaoyfIn7Jiv1ys3dVmUzMC5 NG7lB/y3UI0X3gT8BoH2CRGvTNPDehbsmDYynqguSVTAEpVm50csoWe3RUL9xa+opnoptZ3W9G3g Sk/ipmHl2+Ii7BLqbEjyqMWAIknxF39MLjHc3r5+jVyVFOxtsxBvyzL3jtCUD7YvsZ9Xo1vs4vQB wHMYWwUQmuxcAxlIzTIjq9AIZ0el9l0HO1t8cDn3sSt/yjW19fUeK+9t+jkYcp2bZlrtpvNlF/+C h8rjkcMBL3A2u6hEOsulw9zFXBlY1H5Eb23MBsORna7C/ZjggyBkwCwMVDrsgh09gbr9UP+iOzff Vr+kzciMRM83KrohK4fUdknPNHEe91riImZmCWxmDOOy+lVpwZZeMQqxpMpcfVGF/iYtw1ZgnNTY AZmG7PRVBuJI1WoTxOAu3lI/gewc0mdfzXzDGISdxrKecTLKecVIq910poOdimqRR6gTOS0zf1G2 ipBtQfBKy9TFHBaALLcwZJORwgazyY/hfkzwQRBSlMxAWOnU6XRmRfciTk+DthnW9M9ge62KjOK3 KiIBrkSR8yA3NEwFSdssh3DfhchDW1xCudrTs0YMbecDvISMwbIJHqAlFeDLlJOglVhcssMqxCp9 mGnITqgl0YNGeAxze8SLkJ072jSbmW8uxQ4oWnLhFZXJ2MzkNLHTWiGFqrJYZ57ytMQbK7yUVlbo 5oL050sdNuMILDSWxY86PGJDeNuDY77QKL3xN9Rk0xIxsJLa90E82z5vTAZZfN+DOqZpYzYrlWWW cpbeegvkhuWw3loGtmnTWtJU1y/S0E7G/FpZYoVIL0G2/KR5r9dVBFWIvmZN/JwHgcL0G0tm6Xtm kNhiJJJY12oBxDC3RxwX7Jzudnv6NJuZb667akgjirYmk+3IpNV0vuyqN2Tb4wHciVyBtBTH9To8 WzcaN/1RI5bRoA2fH3OvOemNr9hhBujPfcu4sg/aFzwJ0qMd00j88ySRdl+ACRU5XAKE1bUNFbph H56MIs+OYcfmV6UBoEyijDLn2TUK0HNH1E/DyQM9iY5i2uT+eCKxxwQ7PbAu3NauYghuieK33KWc luJoOqhC4uxE+gTflG3BfQ5kTbzlzrAC78B5m529MM6zMG9P+6Emx47q5O8iO88XO7M2O7oPB7KD 7CA7BdkZ6D4cyM4zZWeviuw8V+yILY9OdvZ1Hw5k51lpfTsV+BrgzC9IALLzzNjZIa9ovKZ6ZXN/ Ia9sXAPs9MN8K4dYFSI7k1YJrJcS8XU+ZOdZscMqAKwyiVXWnnSDXRhRO4vWUi1qIuxUgsOHK8pn wF88HIZhDdl5duzIRXCmI5WQvl6vJ3358oc7ZMU1rcIKsjNp+S3yQkBQzvTvToQl86zYYRWiKqBB K0Sysx+Eo4w0sAr/N6ob63o+LpVNQpZzaH6F1M0KibydNwk9F7m3Xi5+dXutFjWRJ0/6Lz8A9RRK 2XQOHXNkarvdolDT3jc2fDAPbmHZ7XaLQk25HP6iBx6ZOt1uUahpf/A88TiSugcv4VAUhUKhUCgU CoVCoVAoFAqFQqFQKBQKhUKhUCgUCoVCoVAoFAqFQqFQKBQKhUKhUCgUCoVCoVAoFAqFQqFQKBQK hUKhUCgUCoVCoVAoFAqFQqFQKKGbV7nGiXz16pixyzLi24V/esV5/SuO/LyN1Yp6mhIfNE8G3V43 1W9J4CH5nfMk+WX699/Jme7vYIxPvVn+P9Es/cEpenwoATp/kLS8DyI+ZK3/g66p92j4a+CXLOT9 9fXT3T/IU59xm3M76zIzgytY36gJsCPaF7mnJ0bzn2dHtJEyZJJTPJCxA47ndHsHaK6zVkI8b9dM HzP4AQxhmNxhh3OClMc0dMZhE4WaDDux+NazvK9LHn4t22iSLNUZL/frih16vKnb+2zspDx2s/Nh ZMKdnJLpeviyCn3PZoeTjkJNhJ2VyGiZKTL+Bj34IpIR7lXajJd7bcXOg7b12DnAg2fejBk52fnI gjt5GAl2Bj2DvRmHTRRqIuwkC02zEX8eecfZUSxHM1shZ2evqto9ObYIuF+0uW6YMf/oZGctTUTP fBZ5Fk+ckxmHTRRqMuyETasVxt5RdvCGZCMIYzc7FgHD5rgpIdQ52TEfjMlvnL/80MFOYZJRqDHY Me/qSccrsYMHEWdjP6hGbnYse0m7WEKszl7yKM5gxwSCpMvxyzcim50H+PVp1ATZsYLeiXzRaeO3 /J+Gba8oO1V4q78KpQ2FLCCSQTuDnflilD1o2lYftbHKUZNmZysIgq+yw9eb3rd4N0h12dzs2E+P 5ESUdbnPYUJmxTJTtweoy2FnmCYw+CEjouNi514s2NlOxawOq1jlqKekddKuLrN2tX3p+r8vCXZI ywzeZezEotN2f5N32WqRg50zkh0aOfhve+cTGkcVx/GBCbQlFJmBBPESMuyAeNCBmRCr0ITM5KQU 3J2FnpQV3EMRcqy3EE96ytVb2B4qLIUICiIBy+ZQQQSvXiQXbz2UgMSwLq3z/r95M7uZXfdPDt/P Kd3OvHkLv0/eb9/+3i882LeHuhMUttkG9EburC/c6ZNJdg13zsmVq+wuzbK+vJJsAd7+ucXm4rzB 3cEHHjAlltazuFqTK43jcHf6jut53jv05y8bFk/a+iwqD5zUGuVO38mbN8Sdl3HBnXPdupVtbgSb 2XHenY6TTdBji5V0Z0BV2VNT2+DqcMv6PtwB03LH091Z91xfuJMmScKMOch+gb+nBz1J2Ua5c0HD 2mMhfDrUnYs0MN05cD1pRJY+jnTHzyaYGCsUvXJ9TXOHjtdsNj9mb2sF7oApYWdh1fyExR0JsWYa sCAjelhb0p1Ij3mSso10xyXiJS+uWHcuagV3zv0kjoURyh06M9MdcrfNVyjljuc3m/fV1CIykSQO w/fZugR3wNTcCeMo3OLBGBIs7s62ciLL0OwXKuZpyiY+sX/7MGPfcGeFVuqwcD5tjOMOe8l0p5ZN Mj4y3EnVlSq7yxajMHxXuWPfecj4AusOmLo9Im47DT2+807kkjaashV3ijV3mAEsnB+N545V5g7V ZN/YZ6NKFK4kQ95QY/1hfFMLd8BUKXMn74SetA1oylbZndMpuNMocSe/sZ67clmOdcuscsBeAZi7 OyppYynbXNedMd25Lcc6gjtg4e5Ym+KfLZqyTeYO3RKXzHzdKXxVC3fAIt1hKdt1dueWGOs1uAOu gTuyvPogndwdu+5ppNZs3LkpxjqDO+AauGPWU07mDvu+hRPOyB051j7cAQt1hwb0DfNUwUTuXDWH KbvD/5v0CDmEO2D+7nRqVu5c5t9azsbKNI8X4M6lbJ1z2B/tTg/1bGCO7vRzn+nzRg00d1jx5toC 3OloExztDmpBwcLcSY1DZLHujuu618edXok7l7Qy9W24A+bljtoO8xsiZeur/gAiQF1VTCrdGTB3 jmbrjrZh1wxy7pzl1x1amfoB3AFz+rzjis2wez+Q/TC+a7Cnmk2JYCf1o1vGl5F6Reen47gzoO6w US5Hu3NeY/OLontJLNx5/PzPk5Of5NbFK1HJvfwN9tnAvNx5eXLyIyu1/FftsrXWVNKmFz6bZ64v SZnm4QTuvPpa3XmFO5fPT054efR3VtmZa+kO9qjBgvbZyNHop/yTg8uTNsuq3OvDrebOzWKcV96j /r7UnU6t0MgN7oC5ukOORvOUzfGPZdI2ZXduFW68GOZOQbO/gjJ3WrVCKSjOIICZumMG3MtawFO2 nttQHUKr9jZ0K7ZEK34luzLEnYJmn5X2mHLKanLgDpihO2ZKdOEHPAadlfiuTNrK3dkqGFDVnYJ1 HXWSOu+OVdZn92lx2WqU1ILCHTBDd5aL7oiUrRbYhyJpK3ensCb06OHtChSsc/z8zvP+UE9K3em5 Jd134Q6YpTu2sQJc1DZlA3dLdggt7/VRuLnvVP10ftdcsJzaMHc2K7gzcLKUz1avdvbgDpi5Ox+a 7pxpfQruiK9Hh7hj3NxxqnYTtO8by44re+qa7kS/X+nOZYs++J6axxrcAbNypyc2xDbe1GKw+6xV O5QN3C1rSSRtN3V3aGEmrRndeCv3HYvjVu0Abe/8kku5qKlntAaatTw4ogWgxBO7JIRoaQAAAg1J REFUfiyv+6r7pO1Kd0SB6BOHPThis/mn5Tivo8cUmAE7tCpMRPlSffXXbrfdbsvjnRv0uCeNRptd m4XrjqwTtbSfo/rqgy7ncRayfuW/PBCtr37+W0b27O4zfqqUPY35Z3/EH2xZu+vtbPR2mzfMVe5o RW4+OR1k150H3SfkMrdZp6/CHTB9d+QKYe/qJ6NdLw2lL2RhYR6lRXfctHBz9lrlYDXupNLl3KnL SUR1/VLPL7rjMmftyOPX8DcBd8B0oZ1n1QoR7nqe4/JC0GYa27vsiDSNu6jOz0uzdrUNbYAGv1kE tku8qz6LqOl57jrD8+nT2JO5B+znbT6J7BpeCNpMAumOnHUccCGz2bjZaCGbYwp3wFQJaVVloP2b dNflB6PDQHSmZdEY8fPSoXZuOkyijEDdzEnC8aaxK25MEzFYNjL3gD44DPgkxATjOCQPkR1ECUkU BvpbSeKQv0n87SowY2zaXjcc45d0YAXq5pgzzgDaY2lrX23k/HO4E8YExbeogU06nebGHHsaAPwv exb47GCChz/N7bMDAMZzpwd3AIA7AMzRnVO4AwDcAWCO7jyCOwCMCa86gDsAjOvODtwBYCJ3dvN1 RQCAikRGXREAAAAAAAAAAAAAAAAAAAAAAAAAAAAAAAAAAAAAAAAAAAAAAAAAAAAAAAAAAAAAAAAA AAAAAAAAAKCM/wB0w60owL2QBgAAAABJRU5ErkJggg== " />
  </g>
</svg>